date,time,male,latency,behavior,mating,,
8/9/19,9:32,red,,,1,,
8/9/19,9:32,,,,,,
8/9/19,10:00,,0:00,start,,,
8/9/19,10:01,,0:01,chase,,,
8/9/19,10:01,,0:01,chase,,,
8/9/19,10:01,,0:01,court,,,
8/9/19,10:01,,0:01,mate attempt,attempt,,
8/9/19,10:01,,0:01,close wings,wings,,
8/9/19,10:01,,0:01,mating,,,
,,,,Male,713,female,741
,,,,Male,color,was,unaltered