date,time,male,latency,behavior,mating,,
7/17/19,9:58,red,,MP,1,,
7/17/19,10:00,,0:00,start,,,
7/17/19,10:28,,0:28,chase,,,
7/17/19,10:29,,0:29,court,,,
7/17/19,10:29,,0:29,open wings,,,
7/17/19,10:29,,0:29,mate attempt,,,
7/17/19,10:29,,0:29,open wings,,,
7/17/19,10:29,,0:29,mating,,,
7/17/19,10:30,,,Male,color,unaltered,
,,,,male,658,female,704