date,time,male,latency,behavior,mating,
2019-02-24,10:03:41,white,0:00,start,1,
2019-02-24,10:05:05,,0:01,chase,,
2019-02-24,10:05:16,,0:01,mate attempt,,
2019-02-24,10:05:17,,0:01,close wings,,
2019-02-24,10:05:23,,0:01,mate attempt,,
2019-02-24,10:05:23,,0:01,close wings,,
2019-02-24,10:05:48,,0:02,mate attempt,,
2019-02-24,10:05:48,,0:02,close wings,,
2019-02-24,10:06:13,,0:02,mate attempt,,
2019-02-24,10:06:14,,0:02,close wings,,
2019-02-24,10:06:50,,0:03,court,,
2019-02-24,10:06:51,,0:03,close wings,,
2019-02-24,10:06:52,,0:03,mate attempt,,
2019-02-24,10:06:53,,0:03,close wings,,
2019-02-24,10:07:07,,0:03,mate attempt,,
2019-02-24,10:07:07,,0:03,close wings,,
2019-02-24,10:07:35,,0:03,mating,,
2019-02-24,10:07:45,,,Male:,"107,",white
2019-02-24,10:07:55,,,Female:205,,