date,time,male,latency,behavior,,,,
2019-09-26,09:47,red,,MP,male,825,female,849
2019-09-26,09:48,,,Male,color,was,unaltered,
2019-09-26,10:00,,,start,,,,
2019-09-26,10:25,,0:25,court,,,,
2019-09-26,10:25,,0:25,close wings,,,,
2019-09-26,10:25,,0:25,mate attempt,,,,
2019-09-26,10:25,,0:25,court,,,,
2019-09-26,10:25,,0:25,close wings,,,,
2019-09-26,10:25,,0:25,mate attempt,,,,
2019-09-26,11:13,,1:13,court,,,,
2019-09-26,11:13,,1:13,flutter,,,,
2019-09-26,11:14,,1:14,court,,,,
2019-09-26,11:14,,1:14,open wings,,,,
2019-09-26,11:14,,1:14,court,,,,
2019-09-26,11:14,,1:14,close wings,,,,
2019-09-26,11:14,,1:14,mate attempt,,,,
2019-09-26,11:30,,1:30,court,,,,
2019-09-26,11:42,,1:42,court,,,,
2019-09-26,11:42,,1:42,flutter,,,,
2019-09-26,11:42,,1:42,open wings,,,,
2019-09-26,11:43,,1:43,court,,,,
2019-09-26,11:43,,1:43,open wings,,,,
2019-09-26,11:44,,1:44,flutter,,,,
2019-09-26,11:44,,1:44,court,,,,
2019-09-26,11:44,,1:44,close wings,,,,
2019-09-26,12:00,,2:00,No,mating,,,