2019-02-24 10:03:41 Start
2019-02-24 10:05:05 chase
2019-02-24 10:05:16 mate attempt
2019-02-24 10:05:17 close wings
2019-02-24 10:05:23 mate attempt
2019-02-24 10:05:23 close wings
2019-02-24 10:05:48 mate attempt
2019-02-24 10:05:48 close wings
2019-02-24 10:06:13 mate attempt
2019-02-24 10:06:14 close wings
2019-02-24 10:06:50 court
2019-02-24 10:06:51 close wings
2019-02-24 10:06:52 mate attempt
2019-02-24 10:06:53 close wings
2019-02-24 10:07:07 mate attempt close wings
2019-02-24 10:07:35 Mate!
2019-02-24 10:07:45 Male: 107, white
2019-02-24 10:07:55 Female:205
