09:50 AM CP male 383 female 411
09:50 AM Male is white
10:05 AM Start
10:05 AM Chase
10:09 AM Court
10:19 AM Court
10:19 AM Court
10:19 AM Mate attempt
10:19 AM Open wings
10:20 AM Mate attempt
10:20 AM Flutter
10:20 AM Court
10:20 AM Open wings
10:20 AM Court
10:20 AM Mate attempt
10:20 AM Open wings
10:26 AM Court
10:26 AM Close wings
10:30 AM Court
10:30 AM Flutter
10:30 AM Chase
10:46 AM Chase
10:59 AM Chase
11:01 AM Chase
11:03 AM Court
11:03 AM Mate attempt
11:03 AM Open wings
11:03 AM Flutter
11:03 AM Mate attempt
11:03 AM Open wings
11:04 AM Court
11:04 AM Flutter
11:05 AM Hover by the female
11:18 AM Chase
12:05 PM Stop
05:33 PM No mating after 2 days
