10:00 AM Start
10:08 AM Court
10:08 AM Open wings
10:09 AM Fly
10:09 AM Court
10:09 AM Open wings
10:09 AM Fly
10:10 AM Chase
10:10 AM Court
10:10 AM Open wings
10:10 AM Flutter
10:11 AM Court
10:11 AM Open wings
10:11 AM Close wings
10:11 AM Open wings
10:11 AM Close wings
10:11 AM Flutter
10:11 AM Flutter
10:12 AM Flutter
10:18 AM Court
10:18 AM Open wings
10:18 AM Flutter
10:19 AM Flutter
10:19 AM Flutter
10:19 AM Flutter
10:19 AM Court
10:19 AM Open wings
10:19 AM Court
10:19 AM Open wings
10:35 AM Chase
10:35 AM Court
10:35 AM Open wings
10:35 AM Close wings
10:35 AM Open wings
10:35 AM Flutter
10:35 AM Flutter
10:35 AM Flutter
10:36 AM Flutter Mate attempt
10:38 AM Court
10:38 AM Open wings
10:38 AM Chase
10:38 AM Court
10:38 AM Open wings
10:38 AM Flutter
10:38 AM Flutter
10:38 AM Flutter
10:38 AM Flutter
10:39 AM Court
10:44 AM Court
10:44 AM Open wings
10:44 AM Flutter
10:44 AM Flutter
10:44 AM Court 
10:45 AM Chase
10:45 AM Court
10:45 AM Flutter
10:45 AM Flutter
11:08 AM Chase
11:08 AM Chase
11:08 AM Court
11:08 AM Open wings
11:08 AM Flutter
11:08 AM Flutter
11:09 AM Flutter
11:09 AM Flutter
11:09 AM Court
11:09 AM Open wings
11:09 AM Court
11:09 AM Open wings
11:10 AM Chase
11:10 AM Court
11:10 AM Flutter
11:11 AM Flutter
11:11 AM Chase
11:11 AM Court
11:11 AM Flutter
11:11 AM Flutter
11:32 AM Court
11:32 AM Court
11:32 AM Open wings
11:32 AM Chase
11:32 AM Court
11:32 AM Open wings
11:33 AM Flutter
11:37 AM Court
11:37 AM Open wings
11:37 AM Flutter
11:37 AM Flutter
11:37 AM Flutter
11:37 AM Court
11:37 AM Open wings
11:42 AM Court
11:42 AM Close wings
11:42 AM Open wings
11:43 AM Court
11:43 AM Open wings
11:43 AM Court
11:43 AM Open wings
11:44 AM Court
11:44 AM Close wings
11:44 AM Open wings
11:44 AM Court
11:44 AM Open wings
11:49 AM Court 
11:49 AM Open wings
11:49 AM Close wings
11:52 AM Court
11:53 AM Court
11:53 AM Open wings
11:53 AM Court
11:54 AM Court
11:59 AM Court
11:59 AM Flutter
11:59 AM Open wings
12:00 PM Male: CP 900, red; female: 965
05:37 PM No mating after 2 days
