09:47 AM MP male 825 female 849
09:48 AM Male color was unaltered
10:00 AM Start
10:25 AM Court
10:25 AM Close wings
10:25 AM Mate attempt
10:25 AM Court
10:25 AM Mate attempt Close wings
11:13 AM Court
11:13 AM Open wings
11:14 AM Court
11:14 AM Open wings
11:14 AM Court
11:14 AM Close wings
11:14 AM Mate attempt
11:30 AM Court
11:42 AM Court
11:42 AM Flutter
11:42 AM Open wings
11:43 AM Court
11:43 AM Open wings
11:44 AM Flutter
11:44 AM Court
11:44 AM Close wings
12:00 PM No mating
